{
  "project_info": {
    "project_number": "44995992215",
    "firebase_url": "https://rnlogin-b2b29.firebaseio.com",
    "project_id": "rnlogin-b2b29",
    "storage_bucket": "rnlogin-b2b29.appspot.com"
  },
  "client": [
    {
      "client_info": {
        "mobilesdk_app_id": "1:44995992215:android:20296d452da5f428b167d2",
        "android_client_info": {
          "package_name": "com.datn"
        }
      },
      "oauth_client": [
        {
          "client_id": "44995992215-nu3uh74s8p4k208i2usja26bq2oa7p8j.apps.googleusercontent.com",
          "client_type": 3
        }
      ],
      "api_key": [
        {
          "current_key": "AIzaSyDBIhcMr4Z6JzdSxGp7v10M1KkhumS-MFU"
        }
      ],
      "services": {
        "appinvite_service": {
          "other_platform_oauth_client": [
            {
              "client_id": "44995992215-nu3uh74s8p4k208i2usja26bq2oa7p8j.apps.googleusercontent.com",
              "client_type": 3
            },
            {
              "client_id": "44995992215-74f2740dh27p66leh5gbohjq8l32452e.apps.googleusercontent.com",
              "client_type": 2,
              "ios_info": {
                "bundle_id": "org.reactjs.native.MyApp"
              }
            }
          ]
        }
      }
    }
  ],
  "configuration_version": "1"
}